…
<font size='3'>The goal is to create a figure, or set of related
figures, that tell an interesting story about flights into and out of
Austin. You can annotate the figure and briefly describe it, but strive
to make it as stand-alone as possible.</font>

</p>

<h3>

<font color='#00008b'>Frequency of Flights</font>

</h3>

    ## # A tibble: 24 x 3
    ## # Groups:   Month [12]
    ##    Month bound        n
    ##    <fct> <chr>    <int>
    ##  1 01    Inbound   4365
    ##  2 01    Outbound  4361
    ##  3 02    Inbound   4079
    ##  4 02    Outbound  4077
    ##  5 03    Inbound   4462
    ##  6 03    Outbound  4459
    ##  7 04    Inbound   4229
    ##  8 04    Outbound  4229
    ##  9 05    Inbound   4514
    ## 10 05    Outbound  4507
    ## # … with 14 more rows
…
